\relax 
\citation{eddy}
\citation{shen-y}
\citation{lim}
\citation{lim}
\citation{shen-h}
\citation{vazquez}
\citation{wang}
\@writefile{toc}{\contentsline {section}{\numberline {I}Introduction}{1}}
\@writefile{lof}{\contentsline {figure}{\numberline {1}{\ignorespaces General model of video stabilization algorithms.}}{1}}
\newlabel{fig1}{{1}{1}}
\citation{shen-h}
\citation{vazquez}
\citation{lucas}
\citation{wang}
\citation{lim}
\citation{shen-y}
\citation{pan}
\@writefile{toc}{\contentsline {section}{\numberline {II}Related Work}{2}}
\citation{harris}
\citation{harris}
\citation{lim}
\citation{fleet}
\@writefile{toc}{\contentsline {section}{\numberline {III}System Modeling}{3}}
\@writefile{toc}{\contentsline {subsection}{\numberline {\unhbox \voidb@x \hbox {III-A}}Motion Estimation}{3}}
\@writefile{lof}{\contentsline {figure}{\numberline {2}{\ignorespaces Removing boundary and partition for detecting the best corners in each area.}}{3}}
\newlabel{fig2}{{2}{3}}
\citation{lucas}
\citation{zitnick}
\citation{kalman-1}
\citation{kalman-2}
\@writefile{toc}{\contentsline {subsection}{\numberline {\unhbox \voidb@x \hbox {III-B}}Motion Compensation}{4}}
\@writefile{lof}{\contentsline {figure}{\numberline {3}{\ignorespaces Algorithm Model of Kalman Filter.}}{4}}
\newlabel{fig3}{{3}{4}}
\citation{eddy}
\bibcite{eddy}{1}
\bibcite{shen-y}{2}
\bibcite{lim}{3}
\bibcite{shen-h}{4}
\bibcite{vazquez}{5}
\@writefile{toc}{\contentsline {subsection}{\numberline {\unhbox \voidb@x \hbox {III-C}}Image Composition}{5}}
\@writefile{lof}{\contentsline {figure}{\numberline {4}{\ignorespaces Options for processing empty image areas.}}{5}}
\newlabel{fig4}{{4}{5}}
\@writefile{toc}{\contentsline {subsection}{\numberline {\unhbox \voidb@x \hbox {III-D}}General Architecture of System}{5}}
\@writefile{lof}{\contentsline {figure}{\numberline {5}{\ignorespaces General Architecture of System.}}{5}}
\newlabel{fig5}{{5}{5}}
\@writefile{toc}{\contentsline {section}{\numberline {IV}Experiments}{5}}
\@writefile{toc}{\contentsline {section}{\numberline {V}Conclusion}{5}}
\@writefile{toc}{\contentsline {section}{References}{5}}
\bibcite{wang}{6}
\bibcite{pan}{7}
\bibcite{lucas}{8}
\bibcite{harris}{9}
\bibcite{fleet}{10}
\bibcite{zitnick}{11}
\bibcite{kalman-1}{12}
\bibcite{kalman-2}{13}
